Project 3
…
client.entry%>%select(`Time Difference`)%>%arrange(desc(`Time Difference`))

## # A tibble: 5,299 x 1
##    `Time Difference`
##                <dbl>
##  1               894
##  2               574
##  3               550
##  4               515
##  5               515
##  6               510
##  7               484
##  8               484
##  9               467
## 10               461
## # ... with 5,289 more rows
…
